perf_counter/output copy/fft_c/sim_output.txt
mkdir -p verilator
python3 check_sus.py
../bin/rvfi_reference.py
cd verilator ;\
verilator -trace-fst +define+ECE411_VER_DUMP +define+ECE411_FST_DUMP -Wall --timescale 1ps/1ps --trace-structs --trace-max-array 128 --trace-depth 1 -Mdir build -O3 -CFLAGS "-Ofast -march=native" --x-assign fast --x-initial fast --noassert --cc ../verilator_warn.vlt +incdir+/software/Synopsys-2021_x86_64/icc/R-2020.09-SP4/dw/sim_ver +define+DW_SUPPRESS_WARN +incdir+/home/amsheth2/fa24_ece411_Core_Melters/mp_ooo/sim/../hvl/vcs +incdir+/home/amsheth2/fa24_ece411_Core_Melters/mp_ooo/sim/../hvl/common /home/amsheth2/fa24_ece411_Core_Melters/mp_ooo/sim/../pkg/types.sv /home/amsheth2/fa24_ece411_Core_Melters/mp_ooo/sim/../hdl/divider_exec.sv /home/amsheth2/fa24_ece411_Core_Melters/mp_ooo/sim/../hdl/rat.sv /home/amsheth2/fa24_ece411_Core_Melters/mp_ooo/sim/../hdl/res_station.sv /home/amsheth2/fa24_ece411_Core_Melters/mp_ooo/sim/../hdl/lru_array.sv /home/amsheth2/fa24_ece411_Core_Melters/mp_ooo/sim/../hdl/cache.sv /home/amsheth2/fa24_ece411_Core_Melters/mp_ooo/sim/../hdl/br_rs.sv /home/amsheth2/fa24_ece411_Core_Melters/mp_ooo/sim/../hdl/alu_exec.sv /home/amsheth2/fa24_ece411_Core_Melters/mp_ooo/sim/../hdl/multiplier_exec.sv /home/amsheth2/fa24_ece411_Core_Melters/mp_ooo/sim/../hdl/cpu.sv /home/amsheth2/fa24_ece411_Core_Melters/mp_ooo/sim/../hdl/icache.sv /home/amsheth2/fa24_ece411_Core_Melters/mp_ooo/sim/../hdl/alu_rs.sv /home/amsheth2/fa24_ece411_Core_Melters/mp_ooo/sim/../hdl/rob.sv /home/amsheth2/fa24_ece411_Core_Melters/mp_ooo/sim/../hdl/lsq_adder.sv /home/amsheth2/fa24_ece411_Core_Melters/mp_ooo/sim/../hdl/dispatch.sv /home/amsheth2/fa24_ece411_Core_Melters/mp_ooo/sim/../hdl/valid_array.sv /home/amsheth2/fa24_ece411_Core_Melters/mp_ooo/sim/../hdl/cdb_arb.sv /home/amsheth2/fa24_ece411_Core_Melters/mp_ooo/sim/../hdl/s_queue.sv /home/amsheth2/fa24_ece411_Core_Melters/mp_ooo/sim/../hdl/queue.sv /home/amsheth2/fa24_ece411_Core_Melters/mp_ooo/sim/../hdl/regfile.sv /home/amsheth2/fa24_ece411_Core_Melters/mp_ooo/sim/../hdl/bmem_controller.sv /home/amsheth2/fa24_ece411_Core_Melters/mp_ooo/sim/../hdl/rrf.sv /home/amsheth2/fa24_ece411_Core_Melters/mp_ooo/sim/../hdl/ld_rs.sv /home/amsheth2/fa24_ece411_Core_Melters/mp_ooo/sim/../hdl/transparent_regfile.sv /home/amsheth2/fa24_ece411_Core_Melters/mp_ooo/sim/../hdl/fetchyfetch.sv /home/amsheth2/fa24_ece411_Core_Melters/mp_ooo/sim/../hdl/provided_cache.sv /home/amsheth2/fa24_ece411_Core_Melters/mp_ooo/sim/../hdl/free_list.sv /home/amsheth2/fa24_ece411_Core_Melters/mp_ooo/sim/../hdl/br_exec.sv /home/amsheth2/fa24_ece411_Core_Melters/mp_ooo/sim/../hdl/burst_controller.sv /home/amsheth2/fa24_ece411_Core_Melters/mp_ooo/sim/../hdl/decode.sv /home/amsheth2/fa24_ece411_Core_Melters/mp_ooo/sim/../hdl/stack.sv /home/amsheth2/fa24_ece411_Core_Melters/mp_ooo/sim/../hdl/priority_enc.sv /home/amsheth2/fa24_ece411_Core_Melters/mp_ooo/sim/../hvl/common/rvfimon.v /home/amsheth2/fa24_ece411_Core_Melters/mp_ooo/sim/../hvl/common/mem_itf.sv /home/amsheth2/fa24_ece411_Core_Melters/mp_ooo/sim/../hvl/common/dram_w_burst_frfcfs_controller.sv /home/amsheth2/fa24_ece411_Core_Melters/mp_ooo/sim/../hvl/common/monitor.sv /home/amsheth2/fa24_ece411_Core_Melters/mp_ooo/sim/../hvl/common/mon_itf.sv /home/amsheth2/fa24_ece411_Core_Melters/mp_ooo/sim/../hvl/verilator/ls_sniffer.sv /home/amsheth2/fa24_ece411_Core_Melters/mp_ooo/sim/../hvl/verilator/burst_sniffer.sv /home/amsheth2/fa24_ece411_Core_Melters/mp_ooo/sim/../hvl/verilator/rob_sniffer.sv /home/amsheth2/fa24_ece411_Core_Melters/mp_ooo/sim/../hvl/verilator/fetch_q_sniffer.sv /home/amsheth2/fa24_ece411_Core_Melters/mp_ooo/sim/../hvl/verilator/stall_sniffer.sv /home/amsheth2/fa24_ece411_Core_Melters/mp_ooo/sim/../hvl/verilator/fetch_sniffer.sv /home/amsheth2/fa24_ece411_Core_Melters/mp_ooo/sim/../hvl/verilator/top_tb.sv /home/amsheth2/fa24_ece411_Core_Melters/mp_ooo/sim/../sram/output/mp_ooo_2_port_256_entry_2_bit/mp_ooo_2_port_256_entry_2_bit.v /home/amsheth2/fa24_ece411_Core_Melters/mp_ooo/sim/../sram/output/mp_cache_data_array/mp_cache_data_array.v /home/amsheth2/fa24_ece411_Core_Melters/mp_ooo/sim/../sram/output/mp_icache_tag_array/mp_icache_tag_array.v /home/amsheth2/fa24_ece411_Core_Melters/mp_ooo/sim/../sram/output/mp_ooo_branch_table/mp_ooo_branch_table.v /home/amsheth2/fa24_ece411_Core_Melters/mp_ooo/sim/../sram/output/mp_ooo_2_port_512_entry_3_bit/mp_ooo_2_port_512_entry_3_bit.v /home/amsheth2/fa24_ece411_Core_Melters/mp_ooo/sim/../sram/output/mp_icache_data_array/mp_icache_data_array.v /home/amsheth2/fa24_ece411_Core_Melters/mp_ooo/sim/../sram/output/mp_ooo_2_port_32_entry_2_bit/mp_ooo_2_port_32_entry_2_bit.v /home/amsheth2/fa24_ece411_Core_Melters/mp_ooo/sim/../sram/output/mp_ooo_2_port_512_entry_2_bit/mp_ooo_2_port_512_entry_2_bit.v /home/amsheth2/fa24_ece411_Core_Melters/mp_ooo/sim/../sram/output/mp_ooo_1_port_512_entry_2_bit/mp_ooo_1_port_512_entry_2_bit.v /home/amsheth2/fa24_ece411_Core_Melters/mp_ooo/sim/../sram/output/mp_cache_tag_array/mp_cache_tag_array.v /software/Synopsys-2021_x86_64/icc/R-2020.09-SP4/dw/sim_ver/DW_mult_seq.v /software/Synopsys-2021_x86_64/icc/R-2020.09-SP4/dw/sim_ver/DW_div_seq.v --top-module top_tb --exe /home/amsheth2/fa24_ece411_Core_Melters/mp_ooo/sim/../hvl/verilator/verilator_harness.cpp
- V e r i l a t i o n   R e p o r t: Verilator 5.030 2024-10-27 rev v5.030-45-g2cb1a8de7
- Verilator: Built from 24.585 MB sources in 133 modules, into 7.596 MB in 25 C++ files needing 0.015 MB
- Verilator: Walltime 3.610 s (elab=0.160, cvt=1.559, bld=0.000); cpu 3.264 s on 1 threads; alloced 141.328 MB
cd verilator/build ;\
make --jobs=2 -f Vtop_tb.mk
make[1]: Entering directory '/home/amsheth2/fa24_ece411_Core_Melters/mp_ooo/sim/verilator/build'
g++  -I.  -MMD -I/class/ece411/verilator/share/verilator/include -I/class/ece411/verilator/share/verilator/include/vltstd -DVM_COVERAGE=0 -DVM_SC=0 -DVM_TIMING=0 -DVM_TRACE=1 -DVM_TRACE_FST=1 -DVM_TRACE_VCD=0 -faligned-new -fcf-protection=none -Wno-bool-operation -Wno-shadow -Wno-sign-compare -Wno-tautological-compare -Wno-uninitialized -Wno-unused-but-set-parameter -Wno-unused-but-set-variable -Wno-unused-parameter -Wno-unused-variable    -Ofast -march=native   -Os  -c -o verilator_harness.o /home/amsheth2/fa24_ece411_Core_Melters/mp_ooo/sim/../hvl/verilator/verilator_harness.cpp
g++ -Os  -I.  -MMD -I/class/ece411/verilator/share/verilator/include -I/class/ece411/verilator/share/verilator/include/vltstd -DVM_COVERAGE=0 -DVM_SC=0 -DVM_TIMING=0 -DVM_TRACE=1 -DVM_TRACE_FST=1 -DVM_TRACE_VCD=0 -faligned-new -fcf-protection=none -Wno-bool-operation -Wno-shadow -Wno-sign-compare -Wno-tautological-compare -Wno-uninitialized -Wno-unused-but-set-parameter -Wno-unused-but-set-variable -Wno-unused-parameter -Wno-unused-variable    -Ofast -march=native   -c -o verilated.o /class/ece411/verilator/share/verilator/include/verilated.cpp
g++ -Os  -I.  -MMD -I/class/ece411/verilator/share/verilator/include -I/class/ece411/verilator/share/verilator/include/vltstd -DVM_COVERAGE=0 -DVM_SC=0 -DVM_TIMING=0 -DVM_TRACE=1 -DVM_TRACE_FST=1 -DVM_TRACE_VCD=0 -faligned-new -fcf-protection=none -Wno-bool-operation -Wno-shadow -Wno-sign-compare -Wno-tautological-compare -Wno-uninitialized -Wno-unused-but-set-parameter -Wno-unused-but-set-variable -Wno-unused-parameter -Wno-unused-variable    -Ofast -march=native   -c -o verilated_fst_c.o /class/ece411/verilator/share/verilator/include/verilated_fst_c.cpp
g++ -Os  -I.  -MMD -I/class/ece411/verilator/share/verilator/include -I/class/ece411/verilator/share/verilator/include/vltstd -DVM_COVERAGE=0 -DVM_SC=0 -DVM_TIMING=0 -DVM_TRACE=1 -DVM_TRACE_FST=1 -DVM_TRACE_VCD=0 -faligned-new -fcf-protection=none -Wno-bool-operation -Wno-shadow -Wno-sign-compare -Wno-tautological-compare -Wno-uninitialized -Wno-unused-but-set-parameter -Wno-unused-but-set-variable -Wno-unused-parameter -Wno-unused-variable    -Ofast -march=native   -c -o verilated_threads.o /class/ece411/verilator/share/verilator/include/verilated_threads.cpp
g++ -Os  -I.  -MMD -I/class/ece411/verilator/share/verilator/include -I/class/ece411/verilator/share/verilator/include/vltstd -DVM_COVERAGE=0 -DVM_SC=0 -DVM_TIMING=0 -DVM_TRACE=1 -DVM_TRACE_FST=1 -DVM_TRACE_VCD=0 -faligned-new -fcf-protection=none -Wno-bool-operation -Wno-shadow -Wno-sign-compare -Wno-tautological-compare -Wno-uninitialized -Wno-unused-but-set-parameter -Wno-unused-but-set-variable -Wno-unused-parameter -Wno-unused-variable    -Ofast -march=native   -x c++-header Vtop_tb__pch.h -o Vtop_tb__pch.h.fast.gch
g++   -I.  -MMD -I/class/ece411/verilator/share/verilator/include -I/class/ece411/verilator/share/verilator/include/vltstd -DVM_COVERAGE=0 -DVM_SC=0 -DVM_TIMING=0 -DVM_TRACE=1 -DVM_TRACE_FST=1 -DVM_TRACE_VCD=0 -faligned-new -fcf-protection=none -Wno-bool-operation -Wno-shadow -Wno-sign-compare -Wno-tautological-compare -Wno-uninitialized -Wno-unused-but-set-parameter -Wno-unused-but-set-variable -Wno-unused-parameter -Wno-unused-variable    -Ofast -march=native   -x c++-header Vtop_tb__pch.h -o Vtop_tb__pch.h.slow.gch
g++ -Os  -I.  -MMD -I/class/ece411/verilator/share/verilator/include -I/class/ece411/verilator/share/verilator/include/vltstd -DVM_COVERAGE=0 -DVM_SC=0 -DVM_TIMING=0 -DVM_TRACE=1 -DVM_TRACE_FST=1 -DVM_TRACE_VCD=0 -faligned-new -fcf-protection=none -Wno-bool-operation -Wno-shadow -Wno-sign-compare -Wno-tautological-compare -Wno-uninitialized -Wno-unused-but-set-parameter -Wno-unused-but-set-variable -Wno-unused-parameter -Wno-unused-variable    -Ofast -march=native   -include Vtop_tb__pch.h.fast -c -o Vtop_tb.o Vtop_tb.cpp
g++ -Os  -I.  -MMD -I/class/ece411/verilator/share/verilator/include -I/class/ece411/verilator/share/verilator/include/vltstd -DVM_COVERAGE=0 -DVM_SC=0 -DVM_TIMING=0 -DVM_TRACE=1 -DVM_TRACE_FST=1 -DVM_TRACE_VCD=0 -faligned-new -fcf-protection=none -Wno-bool-operation -Wno-shadow -Wno-sign-compare -Wno-tautological-compare -Wno-uninitialized -Wno-unused-but-set-parameter -Wno-unused-but-set-variable -Wno-unused-parameter -Wno-unused-variable    -Ofast -march=native   -include Vtop_tb__pch.h.fast -c -o Vtop_tb___024root__DepSet_hf8625a3e__0.o Vtop_tb___024root__DepSet_hf8625a3e__0.cpp
g++ -Os  -I.  -MMD -I/class/ece411/verilator/share/verilator/include -I/class/ece411/verilator/share/verilator/include/vltstd -DVM_COVERAGE=0 -DVM_SC=0 -DVM_TIMING=0 -DVM_TRACE=1 -DVM_TRACE_FST=1 -DVM_TRACE_VCD=0 -faligned-new -fcf-protection=none -Wno-bool-operation -Wno-shadow -Wno-sign-compare -Wno-tautological-compare -Wno-uninitialized -Wno-unused-but-set-parameter -Wno-unused-but-set-variable -Wno-unused-parameter -Wno-unused-variable    -Ofast -march=native   -include Vtop_tb__pch.h.fast -c -o Vtop_tb___024root__DepSet_hf8625a3e__1.o Vtop_tb___024root__DepSet_hf8625a3e__1.cpp
g++ -Os  -I.  -MMD -I/class/ece411/verilator/share/verilator/include -I/class/ece411/verilator/share/verilator/include/vltstd -DVM_COVERAGE=0 -DVM_SC=0 -DVM_TIMING=0 -DVM_TRACE=1 -DVM_TRACE_FST=1 -DVM_TRACE_VCD=0 -faligned-new -fcf-protection=none -Wno-bool-operation -Wno-shadow -Wno-sign-compare -Wno-tautological-compare -Wno-uninitialized -Wno-unused-but-set-parameter -Wno-unused-but-set-variable -Wno-unused-parameter -Wno-unused-variable    -Ofast -march=native   -include Vtop_tb__pch.h.fast -c -o Vtop_tb___024root__DepSet_hf8625a3e__2.o Vtop_tb___024root__DepSet_hf8625a3e__2.cpp
g++ -Os  -I.  -MMD -I/class/ece411/verilator/share/verilator/include -I/class/ece411/verilator/share/verilator/include/vltstd -DVM_COVERAGE=0 -DVM_SC=0 -DVM_TIMING=0 -DVM_TRACE=1 -DVM_TRACE_FST=1 -DVM_TRACE_VCD=0 -faligned-new -fcf-protection=none -Wno-bool-operation -Wno-shadow -Wno-sign-compare -Wno-tautological-compare -Wno-uninitialized -Wno-unused-but-set-parameter -Wno-unused-but-set-variable -Wno-unused-parameter -Wno-unused-variable    -Ofast -march=native   -include Vtop_tb__pch.h.fast -c -o Vtop_tb___024root__DepSet_hf8625a3e__3.o Vtop_tb___024root__DepSet_hf8625a3e__3.cpp
g++ -Os  -I.  -MMD -I/class/ece411/verilator/share/verilator/include -I/class/ece411/verilator/share/verilator/include/vltstd -DVM_COVERAGE=0 -DVM_SC=0 -DVM_TIMING=0 -DVM_TRACE=1 -DVM_TRACE_FST=1 -DVM_TRACE_VCD=0 -faligned-new -fcf-protection=none -Wno-bool-operation -Wno-shadow -Wno-sign-compare -Wno-tautological-compare -Wno-uninitialized -Wno-unused-but-set-parameter -Wno-unused-but-set-variable -Wno-unused-parameter -Wno-unused-variable    -Ofast -march=native   -include Vtop_tb__pch.h.fast -c -o Vtop_tb___024root__DepSet_h6b5a2dfc__0.o Vtop_tb___024root__DepSet_h6b5a2dfc__0.cpp
g++ -Os  -I.  -MMD -I/class/ece411/verilator/share/verilator/include -I/class/ece411/verilator/share/verilator/include/vltstd -DVM_COVERAGE=0 -DVM_SC=0 -DVM_TIMING=0 -DVM_TRACE=1 -DVM_TRACE_FST=1 -DVM_TRACE_VCD=0 -faligned-new -fcf-protection=none -Wno-bool-operation -Wno-shadow -Wno-sign-compare -Wno-tautological-compare -Wno-uninitialized -Wno-unused-but-set-parameter -Wno-unused-but-set-variable -Wno-unused-parameter -Wno-unused-variable    -Ofast -march=native   -include Vtop_tb__pch.h.fast -c -o Vtop_tb___024root__DepSet_h6b5a2dfc__1.o Vtop_tb___024root__DepSet_h6b5a2dfc__1.cpp
g++ -Os  -I.  -MMD -I/class/ece411/verilator/share/verilator/include -I/class/ece411/verilator/share/verilator/include/vltstd -DVM_COVERAGE=0 -DVM_SC=0 -DVM_TIMING=0 -DVM_TRACE=1 -DVM_TRACE_FST=1 -DVM_TRACE_VCD=0 -faligned-new -fcf-protection=none -Wno-bool-operation -Wno-shadow -Wno-sign-compare -Wno-tautological-compare -Wno-uninitialized -Wno-unused-but-set-parameter -Wno-unused-but-set-variable -Wno-unused-parameter -Wno-unused-variable    -Ofast -march=native   -include Vtop_tb__pch.h.fast -c -o Vtop_tb___024root__DepSet_h6b5a2dfc__2.o Vtop_tb___024root__DepSet_h6b5a2dfc__2.cpp
g++ -Os  -I.  -MMD -I/class/ece411/verilator/share/verilator/include -I/class/ece411/verilator/share/verilator/include/vltstd -DVM_COVERAGE=0 -DVM_SC=0 -DVM_TIMING=0 -DVM_TRACE=1 -DVM_TRACE_FST=1 -DVM_TRACE_VCD=0 -faligned-new -fcf-protection=none -Wno-bool-operation -Wno-shadow -Wno-sign-compare -Wno-tautological-compare -Wno-uninitialized -Wno-unused-but-set-parameter -Wno-unused-but-set-variable -Wno-unused-parameter -Wno-unused-variable    -Ofast -march=native   -include Vtop_tb__pch.h.fast -c -o Vtop_tb_mem_itf_banked__DepSet_h65acb8c7__0.o Vtop_tb_mem_itf_banked__DepSet_h65acb8c7__0.cpp
g++ -Os  -I.  -MMD -I/class/ece411/verilator/share/verilator/include -I/class/ece411/verilator/share/verilator/include/vltstd -DVM_COVERAGE=0 -DVM_SC=0 -DVM_TIMING=0 -DVM_TRACE=1 -DVM_TRACE_FST=1 -DVM_TRACE_VCD=0 -faligned-new -fcf-protection=none -Wno-bool-operation -Wno-shadow -Wno-sign-compare -Wno-tautological-compare -Wno-uninitialized -Wno-unused-but-set-parameter -Wno-unused-but-set-variable -Wno-unused-parameter -Wno-unused-variable    -Ofast -march=native   -include Vtop_tb__pch.h.fast -c -o Vtop_tb_mon_itf__C8__DepSet_h71a49153__0.o Vtop_tb_mon_itf__C8__DepSet_h71a49153__0.cpp
g++ -Os  -I.  -MMD -I/class/ece411/verilator/share/verilator/include -I/class/ece411/verilator/share/verilator/include/vltstd -DVM_COVERAGE=0 -DVM_SC=0 -DVM_TIMING=0 -DVM_TRACE=1 -DVM_TRACE_FST=1 -DVM_TRACE_VCD=0 -faligned-new -fcf-protection=none -Wno-bool-operation -Wno-shadow -Wno-sign-compare -Wno-tautological-compare -Wno-uninitialized -Wno-unused-but-set-parameter -Wno-unused-but-set-variable -Wno-unused-parameter -Wno-unused-variable    -Ofast -march=native   -include Vtop_tb__pch.h.fast -c -o Vtop_tb__Trace__0.o Vtop_tb__Trace__0.cpp
g++   -I.  -MMD -I/class/ece411/verilator/share/verilator/include -I/class/ece411/verilator/share/verilator/include/vltstd -DVM_COVERAGE=0 -DVM_SC=0 -DVM_TIMING=0 -DVM_TRACE=1 -DVM_TRACE_FST=1 -DVM_TRACE_VCD=0 -faligned-new -fcf-protection=none -Wno-bool-operation -Wno-shadow -Wno-sign-compare -Wno-tautological-compare -Wno-uninitialized -Wno-unused-but-set-parameter -Wno-unused-but-set-variable -Wno-unused-parameter -Wno-unused-variable    -Ofast -march=native   -include Vtop_tb__pch.h.slow -c -o Vtop_tb__ConstPool_0.o Vtop_tb__ConstPool_0.cpp
g++   -I.  -MMD -I/class/ece411/verilator/share/verilator/include -I/class/ece411/verilator/share/verilator/include/vltstd -DVM_COVERAGE=0 -DVM_SC=0 -DVM_TIMING=0 -DVM_TRACE=1 -DVM_TRACE_FST=1 -DVM_TRACE_VCD=0 -faligned-new -fcf-protection=none -Wno-bool-operation -Wno-shadow -Wno-sign-compare -Wno-tautological-compare -Wno-uninitialized -Wno-unused-but-set-parameter -Wno-unused-but-set-variable -Wno-unused-parameter -Wno-unused-variable    -Ofast -march=native   -include Vtop_tb__pch.h.slow -c -o Vtop_tb___024root__Slow.o Vtop_tb___024root__Slow.cpp
g++   -I.  -MMD -I/class/ece411/verilator/share/verilator/include -I/class/ece411/verilator/share/verilator/include/vltstd -DVM_COVERAGE=0 -DVM_SC=0 -DVM_TIMING=0 -DVM_TRACE=1 -DVM_TRACE_FST=1 -DVM_TRACE_VCD=0 -faligned-new -fcf-protection=none -Wno-bool-operation -Wno-shadow -Wno-sign-compare -Wno-tautological-compare -Wno-uninitialized -Wno-unused-but-set-parameter -Wno-unused-but-set-variable -Wno-unused-parameter -Wno-unused-variable    -Ofast -march=native   -include Vtop_tb__pch.h.slow -c -o Vtop_tb___024root__DepSet_hf8625a3e__0__Slow.o Vtop_tb___024root__DepSet_hf8625a3e__0__Slow.cpp
g++   -I.  -MMD -I/class/ece411/verilator/share/verilator/include -I/class/ece411/verilator/share/verilator/include/vltstd -DVM_COVERAGE=0 -DVM_SC=0 -DVM_TIMING=0 -DVM_TRACE=1 -DVM_TRACE_FST=1 -DVM_TRACE_VCD=0 -faligned-new -fcf-protection=none -Wno-bool-operation -Wno-shadow -Wno-sign-compare -Wno-tautological-compare -Wno-uninitialized -Wno-unused-but-set-parameter -Wno-unused-but-set-variable -Wno-unused-parameter -Wno-unused-variable    -Ofast -march=native   -include Vtop_tb__pch.h.slow -c -o Vtop_tb___024root__DepSet_hf8625a3e__1__Slow.o Vtop_tb___024root__DepSet_hf8625a3e__1__Slow.cpp
g++   -I.  -MMD -I/class/ece411/verilator/share/verilator/include -I/class/ece411/verilator/share/verilator/include/vltstd -DVM_COVERAGE=0 -DVM_SC=0 -DVM_TIMING=0 -DVM_TRACE=1 -DVM_TRACE_FST=1 -DVM_TRACE_VCD=0 -faligned-new -fcf-protection=none -Wno-bool-operation -Wno-shadow -Wno-sign-compare -Wno-tautological-compare -Wno-uninitialized -Wno-unused-but-set-parameter -Wno-unused-but-set-variable -Wno-unused-parameter -Wno-unused-variable    -Ofast -march=native   -include Vtop_tb__pch.h.slow -c -o Vtop_tb___024root__DepSet_h6b5a2dfc__0__Slow.o Vtop_tb___024root__DepSet_h6b5a2dfc__0__Slow.cpp
g++   -I.  -MMD -I/class/ece411/verilator/share/verilator/include -I/class/ece411/verilator/share/verilator/include/vltstd -DVM_COVERAGE=0 -DVM_SC=0 -DVM_TIMING=0 -DVM_TRACE=1 -DVM_TRACE_FST=1 -DVM_TRACE_VCD=0 -faligned-new -fcf-protection=none -Wno-bool-operation -Wno-shadow -Wno-sign-compare -Wno-tautological-compare -Wno-uninitialized -Wno-unused-but-set-parameter -Wno-unused-but-set-variable -Wno-unused-parameter -Wno-unused-variable    -Ofast -march=native   -include Vtop_tb__pch.h.slow -c -o Vtop_tb___024root__DepSet_h6b5a2dfc__1__Slow.o Vtop_tb___024root__DepSet_h6b5a2dfc__1__Slow.cpp
g++   -I.  -MMD -I/class/ece411/verilator/share/verilator/include -I/class/ece411/verilator/share/verilator/include/vltstd -DVM_COVERAGE=0 -DVM_SC=0 -DVM_TIMING=0 -DVM_TRACE=1 -DVM_TRACE_FST=1 -DVM_TRACE_VCD=0 -faligned-new -fcf-protection=none -Wno-bool-operation -Wno-shadow -Wno-sign-compare -Wno-tautological-compare -Wno-uninitialized -Wno-unused-but-set-parameter -Wno-unused-but-set-variable -Wno-unused-parameter -Wno-unused-variable    -Ofast -march=native   -include Vtop_tb__pch.h.slow -c -o Vtop_tb___024root__DepSet_h6b5a2dfc__2__Slow.o Vtop_tb___024root__DepSet_h6b5a2dfc__2__Slow.cpp
g++   -I.  -MMD -I/class/ece411/verilator/share/verilator/include -I/class/ece411/verilator/share/verilator/include/vltstd -DVM_COVERAGE=0 -DVM_SC=0 -DVM_TIMING=0 -DVM_TRACE=1 -DVM_TRACE_FST=1 -DVM_TRACE_VCD=0 -faligned-new -fcf-protection=none -Wno-bool-operation -Wno-shadow -Wno-sign-compare -Wno-tautological-compare -Wno-uninitialized -Wno-unused-but-set-parameter -Wno-unused-but-set-variable -Wno-unused-parameter -Wno-unused-variable    -Ofast -march=native   -include Vtop_tb__pch.h.slow -c -o Vtop_tb_mem_itf_banked__Slow.o Vtop_tb_mem_itf_banked__Slow.cpp
g++   -I.  -MMD -I/class/ece411/verilator/share/verilator/include -I/class/ece411/verilator/share/verilator/include/vltstd -DVM_COVERAGE=0 -DVM_SC=0 -DVM_TIMING=0 -DVM_TRACE=1 -DVM_TRACE_FST=1 -DVM_TRACE_VCD=0 -faligned-new -fcf-protection=none -Wno-bool-operation -Wno-shadow -Wno-sign-compare -Wno-tautological-compare -Wno-uninitialized -Wno-unused-but-set-parameter -Wno-unused-but-set-variable -Wno-unused-parameter -Wno-unused-variable    -Ofast -march=native   -include Vtop_tb__pch.h.slow -c -o Vtop_tb_mem_itf_banked__DepSet_h65acb8c7__0__Slow.o Vtop_tb_mem_itf_banked__DepSet_h65acb8c7__0__Slow.cpp
g++   -I.  -MMD -I/class/ece411/verilator/share/verilator/include -I/class/ece411/verilator/share/verilator/include/vltstd -DVM_COVERAGE=0 -DVM_SC=0 -DVM_TIMING=0 -DVM_TRACE=1 -DVM_TRACE_FST=1 -DVM_TRACE_VCD=0 -faligned-new -fcf-protection=none -Wno-bool-operation -Wno-shadow -Wno-sign-compare -Wno-tautological-compare -Wno-uninitialized -Wno-unused-but-set-parameter -Wno-unused-but-set-variable -Wno-unused-parameter -Wno-unused-variable    -Ofast -march=native   -include Vtop_tb__pch.h.slow -c -o Vtop_tb_mon_itf__C8__Slow.o Vtop_tb_mon_itf__C8__Slow.cpp
g++   -I.  -MMD -I/class/ece411/verilator/share/verilator/include -I/class/ece411/verilator/share/verilator/include/vltstd -DVM_COVERAGE=0 -DVM_SC=0 -DVM_TIMING=0 -DVM_TRACE=1 -DVM_TRACE_FST=1 -DVM_TRACE_VCD=0 -faligned-new -fcf-protection=none -Wno-bool-operation -Wno-shadow -Wno-sign-compare -Wno-tautological-compare -Wno-uninitialized -Wno-unused-but-set-parameter -Wno-unused-but-set-variable -Wno-unused-parameter -Wno-unused-variable    -Ofast -march=native   -include Vtop_tb__pch.h.slow -c -o Vtop_tb_mon_itf__C8__DepSet_h71a49153__0__Slow.o Vtop_tb_mon_itf__C8__DepSet_h71a49153__0__Slow.cpp
g++   -I.  -MMD -I/class/ece411/verilator/share/verilator/include -I/class/ece411/verilator/share/verilator/include/vltstd -DVM_COVERAGE=0 -DVM_SC=0 -DVM_TIMING=0 -DVM_TRACE=1 -DVM_TRACE_FST=1 -DVM_TRACE_VCD=0 -faligned-new -fcf-protection=none -Wno-bool-operation -Wno-shadow -Wno-sign-compare -Wno-tautological-compare -Wno-uninitialized -Wno-unused-but-set-parameter -Wno-unused-but-set-variable -Wno-unused-parameter -Wno-unused-variable    -Ofast -march=native   -include Vtop_tb__pch.h.slow -c -o Vtop_tb__Syms.o Vtop_tb__Syms.cpp
g++   -I.  -MMD -I/class/ece411/verilator/share/verilator/include -I/class/ece411/verilator/share/verilator/include/vltstd -DVM_COVERAGE=0 -DVM_SC=0 -DVM_TIMING=0 -DVM_TRACE=1 -DVM_TRACE_FST=1 -DVM_TRACE_VCD=0 -faligned-new -fcf-protection=none -Wno-bool-operation -Wno-shadow -Wno-sign-compare -Wno-tautological-compare -Wno-uninitialized -Wno-unused-but-set-parameter -Wno-unused-but-set-variable -Wno-unused-parameter -Wno-unused-variable    -Ofast -march=native   -include Vtop_tb__pch.h.slow -c -o Vtop_tb__Trace__0__Slow.o Vtop_tb__Trace__0__Slow.cpp
g++   -I.  -MMD -I/class/ece411/verilator/share/verilator/include -I/class/ece411/verilator/share/verilator/include/vltstd -DVM_COVERAGE=0 -DVM_SC=0 -DVM_TIMING=0 -DVM_TRACE=1 -DVM_TRACE_FST=1 -DVM_TRACE_VCD=0 -faligned-new -fcf-protection=none -Wno-bool-operation -Wno-shadow -Wno-sign-compare -Wno-tautological-compare -Wno-uninitialized -Wno-unused-but-set-parameter -Wno-unused-but-set-variable -Wno-unused-parameter -Wno-unused-variable    -Ofast -march=native   -include Vtop_tb__pch.h.slow -c -o Vtop_tb__TraceDecls__0__Slow.o Vtop_tb__TraceDecls__0__Slow.cpp
echo "" > Vtop_tb__ALL.verilator_deplist.tmp
g++    verilator_harness.o verilated.o verilated_fst_c.o verilated_threads.o Vtop_tb__ALL.a   -lz  -pthread -lpthread   -o Vtop_tb
rm Vtop_tb__ALL.verilator_deplist.tmp
make[1]: Leaving directory '/home/amsheth2/fa24_ece411_Core_Melters/mp_ooo/sim/verilator/build'
mkdir -p spike
find ./verilator -maxdepth 1 -type f -delete
../bin/generate_memory_file.py -32 /home/amsheth2/fa24_ece411_Core_Melters/mp_ooo/testcode/cp3_release_benches/fft_c.c
[INFO]  Compiled source to /home/amsheth2/fa24_ece411_Core_Melters/mp_ooo/bin/../sim/bin/fft_c.elf
[INFO]  Disassembling fft_c.elf to /home/amsheth2/fa24_ece411_Core_Melters/mp_ooo/bin/../sim/bin/fft_c.dis
[INFO]  Wrote memory contents to /home/amsheth2/fa24_ece411_Core_Melters/mp_ooo/bin/../sim/bin/memory_32.lst
python3 /home/amsheth2/fa24_ece411_Core_Melters/mp_ooo/sim/../bin/get_options.py clock
2000
python3 /home/amsheth2/fa24_ece411_Core_Melters/mp_ooo/sim/../bin/get_options.py bmem_x
1
cd verilator && ./build/Vtop_tb \
	+TIMEOUT_ECE411=10000000 \
	+CLOCK_PERIOD_PS_ECE411=2000 \
	+BRAM_0_ON_X_ECE411=1 \
	+MEMLST_ECE411="/home/amsheth2/fa24_ece411_Core_Melters/mp_ooo/sim/bin/memory_32.lst"
using memory file /home/amsheth2/fa24_ece411_Core_Melters/mp_ooo/sim/bin/memory_32.lst
using memory file /home/amsheth2/fa24_ece411_Core_Melters/mp_ooo/sim/bin/memory_32.lst
dut commit No.                   0, rd_s: x00, rd: 0x00000000
dut commit No.                1000, rd_s: x00, rd: 0x00000000
dut commit No.                2000, rd_s: x11, rd: 0x00aa03c3
dut commit No.                3000, rd_s: x00, rd: 0x00000000
dut commit No.                4000, rd_s: x00, rd: 0x00000000
dut commit No.                5000, rd_s: x00, rd: 0x00000000
Monitor: Segment Start time is             61768000
Monitor: Power Start time is             61770000
dut commit No.                6000, rd_s: x11, rd: 0x0000019e
dut commit No.                7000, rd_s: x15, rd: 0xeffff8d0
